Liigadatan haravointi
…
scrape_data %>%
  select(X2, X4, X6) %>% 
  mutate(X4 = str_replace_all(X4, '\n', ' ')) %>% 
  separate(X4, into = c('kotijoukkue', 'vierasjoukkue'), sep = '  -  ') %>% 
  separate(X6, into = c('kotimaalit', 'vierasmaalit')) %>% 
  mutate(pvm = str_sub(X2, 4) %>% dmy()) %>% 
  fill(pvm) %>% 
  select(-X2) %>% 
  mutate_at(
    vars(contains('maalit')),
    funs(as.numeric(.))
  ) 

## # A tibble: 180 x 5
##    kotijoukkue       vierasjoukkue      kotimaalit vierasmaalit pvm       
##    <chr>             <chr>                   <dbl>        <dbl> <date>    
##  1 "FoPS           ~ "                ~          3            4 1975-09-18
##  2 "Jokerit        ~ "                ~          7            3 1975-09-18
##  3 "Sport          ~ "                ~          3            5 1975-09-18
##  4 "Tappara        ~ "                ~          0            2 1975-09-18
##  5 "Ässät          ~ "                ~          4            2 1975-09-18
##  6 "HIFK           ~ "                ~          4            4 1975-09-21
##  7 "Ilves          ~ "                ~          8            2 1975-09-21
##  8 "Lukko          ~ "                ~          7            1 1975-09-21
##  9 "TPS            ~ "                ~          3            2 1975-09-21
## 10 "KOO-VEE        ~ "                ~          3            4 1975-09-23
## # ... with 170 more rows
…
liigadata 

## # A tibble: 12,706 x 8
##    kausi pvm        kotijoukkue vierasjoukkue kotimaalit vierasmaalit X7   
##    <chr> <date>     <chr>       <chr>              <dbl>        <dbl> <chr>
##  1 1975~ 1975-09-18 FoPS        KOO-VEE                3            4 <NA> 
##  2 1975~ 1975-09-18 Jokerit     Lukko                  7            3 <NA> 
##  3 1975~ 1975-09-18 Sport       HIFK                   3            5 <NA> 
##  4 1975~ 1975-09-18 Tappara     Ilves                  0            2 <NA> 
##  5 1975~ 1975-09-18 Ässät       TPS                    4            2 <NA> 
##  6 1975~ 1975-09-21 HIFK        Tappara                4            4 <NA> 
##  7 1975~ 1975-09-21 Ilves       FoPS                   8            2 <NA> 
##  8 1975~ 1975-09-21 Lukko       Sport                  7            1 <NA> 
##  9 1975~ 1975-09-21 TPS         Jokerit                3            2 <NA> 
## 10 1975~ 1975-09-23 KOO-VEE     Ässät                  3            4 <NA> 
## # ... with 12,696 more rows, and 1 more variable: X8 <chr>
…
